Place,Name,BirthYear,Country,WeightClassKg,BodyweightKg,Bench1Kg,Bench2Kg,Bench3Kg,Best3BenchKg,TotalKg,Equipment,Division,Sex,Event,BirthDate
1,Oksana Sukhodieieva,2001,Ukraine,43,42.52,55,65,-70,65,65,Single-ply,Juniors,F,B,
1,Denisa Turková,2003,Czechia,52,51.92,70,80,-85,80,80,Single-ply,Juniors,F,B,
2,Patrycja Korsak,1999,Poland,52,50.66,77.5,-82.5,-85,77.5,77.5,Single-ply,Juniors,F,B,
DQ,Zuzanna Kula,1999,Poland,52,51.9,-128.5,-128.5,-128.5,,,Single-ply,Juniors,F,B,
1,Mariia Polianska,2003,Ukraine,57,52.76,95,-100,-100,95,95,Single-ply,Juniors,F,B,
2,Maxine Olsson,1999,Sweden,57,54.66,-82.5,82.5,-97.5,82.5,82.5,Single-ply,Juniors,F,B,
3,Lenka Stískalová,2002,Slovakia,57,56.12,-75,75,-95,75,75,Single-ply,Juniors,F,B,
DQ,Patrycja Piec,2001,Poland,57,56.76,-100,-100,-100,,,Single-ply,Juniors,F,B,
1,Rostyslav Kinishchuk,1999,Ukraine,59,58.96,145,-155,155,155,155,Single-ply,Juniors,M,B,
2,Vadym Muzyka,2003,Ukraine,59,58.5,112.5,120,-125,120,120,Single-ply,Juniors,M,B,
3,Dominik Wegener,2000,Germany,59,56.42,110,-117.5,-122.5,110,110,Single-ply,Juniors,M,B,
1,Natália Mikulášová,1999,Slovakia,63,61.45,105,110,115,115,115,Single-ply,Juniors,F,B,
2,Alexandrea Rán Guðnýjardóttir,1999,Iceland,63,62.05,115,-122.5,-122.5,115,115,Single-ply,Juniors,F,B,
3,Linnea Forslund,2002,Sweden,63,62.15,107.5,-112.5,-117.5,107.5,107.5,Single-ply,Juniors,F,B,
1,Adriana Holubová,2001,Czechia,69,63.75,110,-115,-120,110,110,Single-ply,Juniors,F,B,
1,Arvid Sandström,2000,Sweden,74,73.3,175,182.5,-192.5,182.5,182.5,Single-ply,Juniors,M,B,
2,Teodor Eriksson,1999,Sweden,74,73.55,175,180,-185,180,180,Single-ply,Juniors,M,B,
3,Dawid Zubek,2003,Poland,74,73.35,170,-175,-185,170,170,Single-ply,Juniors,M,B,
1,Agnes Rudin,2000,Sweden,76,71.7,140,-147.5,-147.5,140,140,Single-ply,Juniors,F,B,
2,Alona Borshchevska,1999,Ukraine,76,75.4,105,-112.5,112.5,112.5,112.5,Single-ply,Juniors,F,B,
1,Kevin Schmid,2000,Austria,83,80.5,205,212.5,217.5,217.5,217.5,Single-ply,Juniors,M,B,
2,Maciej Zastawny,2000,Poland,83,82.75,195,202.5,-215,202.5,202.5,Single-ply,Juniors,M,B,
3,Sandor Tatar,1999,Hungary,83,79.65,180,-187.5,187.5,187.5,187.5,Single-ply,Juniors,M,B,
4,Wojciech Magiera,2001,Poland,83,77,180,-185,-187.5,180,180,Single-ply,Juniors,M,B,
5,Lukáš Wasserbauer,2001,Czechia,83,78.75,-110,110,,110,110,Single-ply,Juniors,M,B,
1,Patricia Slizova,2001,Slovakia,84,82.65,100,102.5,-110,102.5,102.5,Single-ply,Juniors,F,B,
1,Kacper Linkowski,2001,Poland,93,91.6,185,192.5,200,200,200,Single-ply,Juniors,M,B,
2,Edvin Forslund,2000,Sweden,93,91.8,200,-205,-205,200,200,Single-ply,Juniors,M,B,
3,Ondřej Smetaník,2003,Czechia,93,91.15,182.5,190,-200,190,190,Single-ply,Juniors,M,B,
4,Ihor Hroshko,2003,Ukraine,93,83.75,182.5,187.5,-192.5,187.5,187.5,Single-ply,Juniors,M,B,
1,Paweł Wieczorek,2001,Poland,105,95.5,215,225,-235,225,225,Single-ply,Juniors,M,B,
2,Hubert Jasiński,2001,Poland,105,93.85,162.5,172.5,-177.5,172.5,172.5,Single-ply,Juniors,M,B,
3,Hermanni Järvenpää,2003,Finland,105,102.8,140,-225,-235,140,140,Single-ply,Juniors,M,B,
1,Dominik Plaskonis,2000,Slovakia,120,119.55,-212.5,212.5,217.5,217.5,217.5,Single-ply,Juniors,M,B,
2,Yuri Karoglanyan,1999,Armenia,120,109.5,215,-220,-220,215,215,Single-ply,Juniors,M,B,
3,Dawid Marciniak,2000,Poland,120,105.8,160,-180,180,180,180,Single-ply,Juniors,M,B,
1,Denis Kurečka,1999,Czechia,120+,151.8,-265,265,280,280,280,Single-ply,Juniors,M,B,
2,Pascal Behrendt,1999,Germany,120+,123.35,120,-210,-210,120,120,Single-ply,Juniors,M,B,
1,Karolina Kołata,1999,Poland,84+,101.5,-160,160,-165,160,160,Single-ply,Juniors,F,B,
2,Klaudia Murza,2002,Poland,84+,125.45,-155,-155,155,155,155,Single-ply,Juniors,F,B,
1,Jadwiga Radwańska',1975,Poland,57,54.14,85,90,95,95,95,Single-ply,Masters 1,F,B,
1,Anne Heikkilä,1978,Finland,63,62.4,95,105,112.5,112.5,112.5,Single-ply,Masters 1,F,B,
2,Mélisa Meunier,1975,France,63,60.6,80,85,-90,85,85,Single-ply,Masters 1,F,B,
1,Aaron Gideon,1980,UK,66,65.05,172.5,180,-182.5,180,180,Single-ply,Masters 1,M,B,
2,Ville Vaivila,1977,Finland,66,65.7,80,120,-127.5,120,120,Single-ply,Masters 1,M,B,
1,Krisztina Lója,1979,Hungary,69,66.7,95,-102.5,-102.5,95,95,Single-ply,Masters 1,F,B,
2,Éva Makai,1979,Hungary,69,64.9,60,65,67.5,67.5,67.5,Single-ply,Masters 1,F,B,
1,Adam Balawejder,1981,Poland,74,73.75,-215,215,-220,215,215,Single-ply,Masters 1,M,B,
2,Marcus Holmgren,1975,Sweden,74,73.85,-165,165,-192.5,165,165,Single-ply,Masters 1,M,B,
1,Tiina Voho,1973,Finland,76,75,90,127.5,-135,127.5,127.5,Single-ply,Masters 1,F,B,
1,Arkadiusz Wloch,1975,Poland,83,82.35,-180,180,185,185,185,Single-ply,Masters 1,M,B,
2,Lionel Suc,1975,France,83,81.8,182.5,-187.5,-187.5,182.5,182.5,Single-ply,Masters 1,M,B,
3,Michal Šícha,1980,Czechia,83,82.45,167.5,175,177.5,177.5,177.5,Single-ply,Masters 1,M,B,
4,Tomasz Dębicki,1974,Poland,83,81.95,167.5,-175,175,175,175,Single-ply,Masters 1,M,B,
5,Nico Duenkel,1978,Germany,83,82.75,-165,-165,165,165,165,Single-ply,Masters 1,M,B,
6,Christian Roehner,1977,Germany,83,80.55,160,-172.5,-175,160,160,Single-ply,Masters 1,M,B,
1,Ľubomír Pidanič,1978,Slovakia,93,91.9,237.5,-245,-245,237.5,237.5,Single-ply,Masters 1,M,B,
2,Aki Kangasjärvi,1977,Finland,93,92.2,-210,215,-222.5,215,215,Single-ply,Masters 1,M,B,
3,Kęstutis Milkintis,1979,Lithuania,93,90.2,-212.5,212.5,-217.5,212.5,212.5,Single-ply,Masters 1,M,B,
4,Furch Jiri,1975,Czechia,93,88.8,155,162.5,,162.5,162.5,Single-ply,Masters 1,M,B,
DQ,Thomas Wetzstein,1974,Austria,93,92.75,-255,-255,-255,,,Single-ply,Masters 1,M,B,
DQ,Mirko Vahl,1977,Germany,93,92.5,-205,-212.5,-215,,,Single-ply,Masters 1,M,B,
1,Eryk Walczak,1977,Poland,105,104.6,260,270,272.5,272.5,272.5,Single-ply,Masters 1,M,B,
2,Frank Barthel,1980,Germany,105,102.55,265,-270,270,270,270,Single-ply,Masters 1,M,B,
3,Christian Klotz,1977,Austria,105,103,235,242.5,-272.5,242.5,242.5,Single-ply,Masters 1,M,B,
4,Viktor Shandryhos,1978,Ukraine,105,98.55,215,-237.5,-237.5,215,215,Single-ply,Masters 1,M,B,
5,Thorsten Thenhart,1975,Germany,105,103.45,205,-217.5,-217.5,205,205,Single-ply,Masters 1,M,B,
6,Robert Černovský,1978,Czechia,105,103.2,190,-200,-205,190,190,Single-ply,Masters 1,M,B,
7,Thierry Kelle,1976,France,105,100.7,175,-190,-190,175,175,Single-ply,Masters 1,M,B,
DQ,Karen Markosyan,1981,Armenia,105,101.85,-230,-230,-242.5,,,Single-ply,Masters 1,M,B,
1,Mikko Tiensuu,1978,Finland,120,119.4,250,265,277.5,277.5,277.5,Single-ply,Masters 1,M,B,
2,Tamás Sebestyén,1980,Hungary,120,109.15,275,-287.5,-287.5,275,275,Single-ply,Masters 1,M,B,
3,Sorin Cazacu,1973,Romania,120,119.15,232.5,235,240,240,240,Single-ply,Masters 1,M,B,
4,Peter Zuberec,1978,Slovakia,120,115.15,-225,225,-237.5,225,225,Single-ply,Masters 1,M,B,
5,Janne Hakala,1979,Finland,120,118.4,165,175,185,185,185,Single-ply,Masters 1,M,B,
1,René Groß,1981,Germany,120+,124.8,317.5,327.5,332.5,332.5,332.5,Single-ply,Masters 1,M,B,
2,Milan Špingl,1980,Czechia,120+,143.3,260,270,-280,270,270,Single-ply,Masters 1,M,B,
3,Jan Pinc,1973,Czechia,120+,135.6,-255,-255,255,255,255,Single-ply,Masters 1,M,B,
1,Géraldine Verlaine,1970,France,52,51.72,72.5,77.5,-80,77.5,77.5,Single-ply,Masters 2,F,B,
2,Magdolna Petróczki,1968,Hungary,52,50.42,70,75,-77.5,75,75,Single-ply,Masters 2,F,B,
1,Marie-France Cabos,1967,France,57,56.32,90,95,-97.5,95,95,Single-ply,Masters 2,F,B,
2,Béatrice Russic,1969,France,57,55.18,-77.5,-77.5,77.5,77.5,77.5,Single-ply,Masters 2,F,B,
1,Volodymyr Moroz,1966,Ukraine,59,58.7,85,92.5,100,100,100,Single-ply,Masters 2,M,B,
1,Maureen Gordon,1964,UK,63,61.8,95,100,107.5,107.5,107.5,Single-ply,Masters 2,F,B,
2,Annelie Izindre,1972,Sweden,63,61.25,97.5,100,105,105,105,Single-ply,Masters 2,F,B,
3,Rita Shergold,1965,UK,63,60.95,85,90,-100,90,90,Single-ply,Masters 2,F,B,
1,Oleksandr Chernyshov,1966,Ukraine,66,65.9,150,157.5,165,165,165,Single-ply,Masters 2,M,B,
2,Maik Staegemann,1969,Germany,66,64.75,150,155,-165,155,155,Single-ply,Masters 2,M,B,
1,Florence Leccese,1969,France,69,66.6,82.5,87.5,92.5,92.5,92.5,Single-ply,Masters 2,F,B,
2,Andrea Thurner,1966,Austria,69,67.6,70,75,-80,75,75,Single-ply,Masters 2,F,B,
1,Vincent Eldin,1972,France,74,73.7,170,180,-187.5,180,180,Single-ply,Masters 2,M,B,
2,Jukka Siltanen,1965,Sweden,74,73.25,80,140,-150,140,140,Single-ply,Masters 2,M,B,
1,Ulrika Johansson,1972,Sweden,76,74.05,67.5,105,-112.5,105,105,Single-ply,Masters 2,F,B,
1,Henning Lorentzen Ove,1971,Norway,83,81.75,205,-215,217.5,217.5,217.5,Single-ply,Masters 2,M,B,
2,Vitalijus Stachovas,1971,Lithuania,83,82.3,170,-175,175,175,175,Single-ply,Masters 2,M,B,
3,Bruno Bastien,1965,France,83,81.15,160,-170,-170,160,160,Single-ply,Masters 2,M,B,
DQ,Cyril Pinguet,1972,France,83,82.55,-215,-215,-220,,,Single-ply,Masters 2,M,B,
1,Eirin Herland,1969,Norway,84,83.05,95,-97.5,-100,95,95,Single-ply,Masters 2,F,B,
2,Malin Dalshoff,1970,Sweden,84,81,92.5,-95,-97.5,92.5,92.5,Single-ply,Masters 2,F,B,
3,Päivi Ristolainen,1970,Finland,84,81,75,-82.5,-82.5,75,75,Single-ply,Masters 2,F,B,
1,Martin Turek,1972,Czechia,93,85.55,195,200,-215,200,200,Single-ply,Masters 2,M,B,
2,Marian Daňo,1967,Slovakia,93,91.5,160,170,-180,170,170,Single-ply,Masters 2,M,B,
3,Petteri Laurikainen,1969,Finland,93,91.7,100,-215,-215,100,100,Single-ply,Masters 2,M,B,
1,Robert Dawidowicz,1972,Sweden,105,97.45,215,220,230,230,230,Single-ply,Masters 2,M,B,
2,Heiko Mueller,1970,Germany,105,104.7,225,-230,-232.5,225,225,Single-ply,Masters 2,M,B,
3,Henrik Bo Jensen,1967,Denmark,105,99.75,210,220,-227.5,220,220,Single-ply,Masters 2,M,B,
4,Mario Schnurr,1966,Germany,105,99.1,205,212.5,-225,212.5,212.5,Single-ply,Masters 2,M,B,
5,Kaj Wasenius,1972,Finland,105,103.6,160,170,,170,170,Single-ply,Masters 2,M,B,
DQ,Radek Wasserbauer,1972,Czechia,105,103.55,-175,-175,-180,,,Single-ply,Masters 2,M,B,
1,János Cserna,1968,Hungary,120,117.2,-247.5,-247.5,247.5,247.5,247.5,Single-ply,Masters 2,M,B,
2,Lucian Otoiu,1969,Romania,120,117.8,222.5,235,-240,235,235,Single-ply,Masters 2,M,B,
3,Thomas Ziegler,1967,Germany,120,105.3,180,190,-205,190,190,Single-ply,Masters 2,M,B,
DQ,Bjarne Havnen,1968,Norway,120,119.25,-235,-240,-240,,,Single-ply,Masters 2,M,B,
DQ,Timo Rukkila,1972,Finland,120,116.1,-205,-205,-207.5,,,Single-ply,Masters 2,M,B,
1,Jaroslav Šoukal,1972,Czechia,120+,169.2,125,250,,250,250,Single-ply,Masters 2,M,B,
1,Susanne Steidle,1964,Germany,84+,84.55,85,90,92.5,92.5,92.5,Single-ply,Masters 2,F,B,
2,Erzsébet Schneider,1965,Hungary,84+,84.2,80,85,90,90,90,Single-ply,Masters 2,F,B,
1,Martine Roche,1956,France,52,49.64,62.5,67.5,-72.5,67.5,67.5,Single-ply,Masters 3,F,B,
1,Audhild Mathiesen,1957,Norway,57,55.8,77.5,83,84,84,84,Single-ply,Masters 3,F,B,
1,Štefan Koľšovský,1961,Slovakia,59,58.36,132.5,137.5,-142.5,137.5,137.5,Single-ply,Masters 3,M,B,
1,Evelyne Herbin,1956,France,63,62.5,70,75,-80,75,75,Single-ply,Masters 3,F,B,
1,Jozef Trnka,1959,Slovakia,66,65.25,120,125,-130,125,125,Single-ply,Masters 3,M,B,
2,Hannu Peräsalo,1962,Finland,66,65,-105,-105,105,105,105,Single-ply,Masters 3,M,B,
3,Seppo Flink,1953,Finland,66,64.95,-90,90,92.5,92.5,92.5,Single-ply,Masters 3,M,B,
1,Patricia Maciejewski,1961,France,69,68.6,80,85,-90,85,85,Single-ply,Masters 3,F,B,
1,Anton Mihok,1957,Slovakia,74,72.15,140,145,-150,145,145,Single-ply,Masters 3,M,B,
2,Peter Muigg,1958,Austria,74,70.5,-115,-115,117.5,117.5,117.5,Single-ply,Masters 3,M,B,
3,Patrick Malenfant,1958,France,74,72.25,110,115,-117.5,115,115,Single-ply,Masters 3,M,B,
1,Tomas Ring,1960,Sweden,83,81.8,187.5,-205,-205,187.5,187.5,Single-ply,Masters 3,M,B,
2,Ronald Sura,1959,Slovakia,83,80.65,125,-137.5,142.5,142.5,142.5,Single-ply,Masters 3,M,B,
1,Peer Hänsicke,1961,Germany,93,92.05,-190,190,-205,190,190,Single-ply,Masters 3,M,B,
2,Benjaminas Milis,1961,Lithuania,93,85.55,165,170,175,175,175,Single-ply,Masters 3,M,B,
3,Krzysztof Kozielski,1962,Poland,93,92.05,-160,160,-172.5,160,160,Single-ply,Masters 3,M,B,
4,Wolfgang Fellier,1962,Austria,93,90.95,-135,135,-160,135,135,Single-ply,Masters 3,M,B,
5,Josef Ptáček,1953,Czechia,93,91.75,115,-125,,115,115,Single-ply,Masters 3,M,B,
1,Martin Flett,1956,UK,105,101.7,120,-155,-155,120,120,Single-ply,Masters 3,M,B,
1,Jiří Psota,1962,Czechia,120,110.05,210,217.5,222.5,222.5,222.5,Single-ply,Masters 3,M,B,
2,Torleif Carlsson,1962,Sweden,120,111.5,-210,-212.5,215,215,215,Single-ply,Masters 3,M,B,
3,Vidar Alexander Ringvold,1955,Norway,120,112.75,-200,200,-220,200,200,Single-ply,Masters 3,M,B,
4,Ari Myllyniemi,1958,Finland,120,105.05,160,165,-170,165,165,Single-ply,Masters 3,M,B,
1,John S. Christensen,1961,Denmark,120+,137.5,-240,240,255,255,255,Single-ply,Masters 3,M,B,
2,Bernd Meyer,1961,Germany,120+,127.1,-210,210,-240,210,210,Single-ply,Masters 3,M,B,
3,Helmut Rangnit,1956,Germany,120+,131,120,150,-157.5,150,150,Single-ply,Masters 3,M,B,
1,Françoise Heligon,1943,France,52,49.46,45,47.5,50,50,50,Single-ply,Masters 4,F,B,
1,Antanas Micius,1951,Lithuania,74,72.3,120,-125,-125,120,120,Single-ply,Masters 4,M,B,
DQ,Bolesław Mąka,1942,Poland,74,72.25,-125,-125,-125,,,Single-ply,Masters 4,M,B,
1,Gerhard Baumeister,1952,Germany,83,82.8,100,125,-145,125,125,Single-ply,Masters 4,M,B,
1,Kjell Arne Bøe,1952,Norway,93,83.55,150,-160,-163,150,150,Single-ply,Masters 4,M,B,
2,Mick Ellender,1945,UK,93,91.8,120,130,-135,130,130,Single-ply,Masters 4,M,B,
1,Seppo Komppa,1945,Finland,105,99.4,-147.5,147.5,160,160,160,Single-ply,Masters 4,M,B,
2,Sven-Erik Wallin,1951,Sweden,105,102.85,-115,115,-117.5,115,115,Single-ply,Masters 4,M,B,
1,Josef Duna,1950,Czechia,120,113.85,140,150,162.5,162.5,162.5,Single-ply,Masters 4,M,B,
2,Janos Pokornyi,1952,Hungary,120,108.65,-150,150,-160,150,150,Single-ply,Masters 4,M,B,
3,Franz Mracek,1947,Austria,120,110,110,120,130,130,130,Single-ply,Masters 4,M,B,
1,Oksana Motrunchyk,1992,Ukraine,47,46.88,95,-102.5,-102.5,95,95,Single-ply,Open,F,B,
1,Oksana Vedmid,1991,Ukraine,52,51.5,130,137.5,-145,137.5,137.5,Single-ply,Open,F,B,
2,Mónika Nyers,1978,Hungary,52,51.04,105,110,112.5,112.5,112.5,Single-ply,Open,F,B,
3,Mariana Koliadenko,1991,Ukraine,52,51.94,-100,100,-112.5,100,100,Single-ply,Open,F,B,
1,Monika Beer,1974,Slovakia,57,54.64,110,115,-117.5,115,115,Single-ply,Open,F,B,
2,Marcela Sandvik,1974,Finland,57,55.66,107.5,112.5,115,115,115,Single-ply,Open,F,B,
3,Erika Salamon,1973,Hungary,57,55.14,105,-112.5,112.5,112.5,112.5,Single-ply,Open,F,B,
4,Laura Savolainen,1989,Sweden,57,56.88,-112.5,112.5,-117.5,112.5,112.5,Single-ply,Open,F,B,
5,Liisa Peri,1995,Estonia,57,56.18,102.5,-107.5,-115,102.5,102.5,Single-ply,Open,F,B,
6,Anastasiia Lysa,1995,Ukraine,57,52.12,-85,-85,85,85,85,Single-ply,Open,F,B,
7,Alona Kaniuka,1998,Ukraine,57,56.78,85,-90,-90,85,85,Single-ply,Open,F,B,
1,Fredrik Eskil Myrvang,1990,Norway,59,56.4,185,-192.5,-192.5,185,185,Single-ply,Open,M,B,
1,Maria Karjalainen,1990,Finland,63,59.7,122.5,-127.5,-130,122.5,122.5,Single-ply,Open,F,B,
2,Bianca Wienroither,1984,Austria,63,62.4,110,-127.5,-130,110,110,Single-ply,Open,F,B,
3,Linn Hèlen Solbakken Fjeld,1992,Norway,63,60.84,100,-125,-130,100,100,Single-ply,Open,F,B,
1,Andreas Frasl,1983,Austria,66,65.2,205,-225,-250.5,205,205,Single-ply,Open,M,B,
2,Kamil Iwasiów,1984,Poland,66,65.8,-165,165,-182.5,165,165,Single-ply,Open,M,B,
1,Matilda Vilmar,1996,Sweden,69,68.75,160,167.5,170,170,170,Single-ply,Open,F,B,
2,Ingvild Hansen,1994,Norway,69,68.45,150,160,167.5,167.5,167.5,Single-ply,Open,F,B,
3,Ľubica Polkorábová,1988,Slovakia,69,64.15,112.5,115,117.5,117.5,117.5,Single-ply,Open,F,B,
4,Katerina Pinionzh,1998,Ukraine,69,66,105,112.5,117.5,117.5,117.5,Single-ply,Open,F,B,
5,Brigita Bakić,1997,Croatia,69,66.45,97.5,-107.5,-112.5,97.5,97.5,Single-ply,Open,F,B,
1,Ivan Chuprinko,1986,Ukraine,74,73.7,270,-293,-300.5,270,270,Single-ply,Open,M,B,
2,Martin Foriš,1997,Slovakia,74,73.45,220,230,-240,230,230,Single-ply,Open,M,B,
3,Andrii Balenkov,1981,Ukraine,74,73.95,220,230,-240,230,230,Single-ply,Open,M,B,
4,Karl Michael Valk,1994,Estonia,74,73.35,-205,205,-222.5,205,205,Single-ply,Open,M,B,
1,Annemia Pretzmann,1992,Denmark,76,75.55,147.5,152.5,157.5,157.5,157.5,Single-ply,Open,F,B,
2,Frida Wik,1991,Sweden,76,75.95,140,145,155,155,155,Single-ply,Open,F,B,
3,Daria Ławniczak,1995,Poland,76,75.35,132.5,140,-145,140,140,Single-ply,Open,F,B,
4,Rachel Steedman,1995,UK,76,69.2,-115,115,-122.5,115,115,Single-ply,Open,F,B,
1,Mads Friche,1983,Denmark,83,81.95,-250,-250,250,250,250,Single-ply,Open,M,B,
2,Mariusz Palcowski,1982,Poland,83,82.4,-245,-245,245,245,245,Single-ply,Open,M,B,
3,Amit Selberg,1976,Sweden,83,79.95,-235,-235,235,235,235,Single-ply,Open,M,B,
4,Kjell Egil Bakkelund,1988,Norway,83,76.05,-225,225,-245,225,225,Single-ply,Open,M,B,
5,James Taylor #10,1998,UK,83,82.85,185,192.5,-200,192.5,192.5,Single-ply,Open,M,B,
DQ,Raik Günterberg,1989,Germany,83,82.6,-255,-257.5,-257.5,,,Single-ply,Open,M,B,
DQ,Matias Viiperi,1994,Finland,83,82.3,-252.5,-255,-257.5,,,Single-ply,Open,M,B,
1,Linda Kristensen,1977,Norway,84,79.8,160,165,170,170,170,Single-ply,Open,F,B,
2,Sofia Kamlund,1990,Sweden,84,82.35,140,-145,-145,140,140,Single-ply,Open,F,B,
3,Amy Clair,1987,UK,84,77.45,110,-120,120,120,120,Single-ply,Open,F,B,
4,Miroslava Horáková,1988,Czechia,84,79.85,60,85,95,95,95,Single-ply,Open,F,B,
1,Kostiantyn Musiienko,1997,Ukraine,93,92.6,320,-351.5,-351.5,320,320,Single-ply,Open,M,B,
2,Rafał Zalewski,1982,Poland,93,91.6,-290,-290,290,290,290,Single-ply,Open,M,B,
3,Joakim Wång,1983,Sweden,93,90.6,-265,265,-280,265,265,Single-ply,Open,M,B,
4,Michal Majerech,1983,Slovakia,93,91.85,235,-245,-245,235,235,Single-ply,Open,M,B,
5,Róbert Nemes,1986,Hungary,93,87.75,210,217.5,222.5,222.5,222.5,Single-ply,Open,M,B,
DQ,Jan Wegiera,1965,Poland,93,92,-280,-280,-280,,,Single-ply,Open,M,B,
DQ,Tomi Vikla,1970,Finland,93,92.85,-240,-240,-245,,,Single-ply,Open,M,B,
1,Ralf A. Male,1994,Norway,105,104.55,282.5,292.5,300,300,300,Single-ply,Open,M,B,
2,Volodymyr Bettyar,1984,Ukraine,105,104.85,295,300,-302.5,300,300,Single-ply,Open,M,B,
3,Oliver Dahlkvist,1995,Sweden,105,103.9,290,295,-300,295,295,Single-ply,Open,M,B,
4,Michael Gibson #2,1987,UK,105,103.7,-270,-270,270,270,270,Single-ply,Open,M,B,
5,Jeppe Frost Balsby,1986,Denmark,105,103.25,240,252.5,-265,252.5,252.5,Single-ply,Open,M,B,
6,Boras Dominik,1995,Germany,105,97.15,240,245,-255,245,245,Single-ply,Open,M,B,
7,Zdeněk Tuháček,1986,Czechia,105,99.5,227.5,235,242.5,242.5,242.5,Single-ply,Open,M,B,
8,Gergely Horváth,1985,Hungary,105,104.95,240,-250,-257.5,240,240,Single-ply,Open,M,B,
DQ,Dawid Rapta,1983,Poland,105,105,-265,-265,-265,,,Single-ply,Open,M,B,
1,Viktor Leskovets,1990,Ukraine,120,110.5,305,315,-376,315,315,Single-ply,Open,M,B,
2,Jakob Thrane Mainz,1993,Denmark,120,119.65,297.5,307.5,-317.5,307.5,307.5,Single-ply,Open,M,B,
3,Keelum Walton,1993,UK,120,118.65,-280,-280,300,300,300,Single-ply,Open,M,B,
4,Taras Buben,1990,Ukraine,120,117.8,297.5,-307.5,-307.5,297.5,297.5,Single-ply,Open,M,B,
5,Milan Selinger,1984,Czechia,120,119.7,-297.5,297.5,-307.5,297.5,297.5,Single-ply,Open,M,B,
1,Per Marius Hole,1989,Norway,120+,124.1,340,-355,365,365,365,Single-ply,Open,M,B,
2,Kenneth Sandvik,1975,Finland,120+,142.45,-315,317.5,322.5,322.5,322.5,Single-ply,Open,M,B,
3,Rasmus Mirblom,1995,Sweden,120+,143.65,310,317.5,320,320,320,Single-ply,Open,M,B,
4,Nazar Nerianov,1998,Ukraine,120+,142.6,282.5,292.5,-302.5,292.5,292.5,Single-ply,Open,M,B,
DQ,Béla Csüllög,1988,Hungary,120+,133.32,-300,-300,-305,,,Single-ply,Open,M,B,
DQ,Michał Wegiera,1989,Poland,120+,146.2,-310,-310,-320,,,Single-ply,Open,M,B,
DQ,Florin Lupas Ionut,1989,Romania,120+,147.35,-307.5,-307.5,-307.5,,,Single-ply,Open,M,B,
DQ,Ákos Labát,1995,Slovakia,120+,149.6,-300,-300,-322.5,,,Single-ply,Open,M,B,
1,Hildeborg Juvet Hugdal,1983,Norway,84+,120.25,212.5,-220,-220,212.5,212.5,Single-ply,Open,F,B,
2,Ágnes Szabó,1988,Hungary,84+,114,187.5,195,202.5,202.5,202.5,Single-ply,Open,F,B,
3,Maria Kamp Jensen,1985,Denmark,84+,104.65,185,192.5,-202.5,192.5,192.5,Single-ply,Open,F,B,
4,Kate Sweatman,1985,UK,84+,126,190,-197.5,-200,190,190,Single-ply,Open,F,B,
5,Anna Edvall,1976,Sweden,84+,97.45,175,-187.5,-192.5,175,175,Single-ply,Open,F,B,
6,Tetiana Lytvyniuk,1986,Ukraine,84+,100.7,-160,-160,160,160,160,Single-ply,Open,F,B,
7,Petra Švadlenková,1992,Czechia,84+,91.8,90,95,-100,95,95,Single-ply,Open,F,B,
DQ,Sari Rauhala,1984,Finland,84+,113.7,-150,-150,-150,,,Single-ply,Open,F,B,
1,Khrystyna Ulianyk,2005,Ukraine,43,39.38,40,45,-50,45,45,Single-ply,Sub-Juniors,F,B,
1,Sandra Dzieżok,2007,Poland,52,52,55,60,-65,60,60,Single-ply,Sub-Juniors,F,B,
1,Martyna Janaszek,2005,Poland,57,54.92,55,70,-77.5,70,70,Single-ply,Sub-Juniors,F,B,
DQ,Sofiya Stanko,2006,Ukraine,57,56.76,-100,-102.5,-102.5,,,Single-ply,Sub-Juniors,F,B,
1,Dániel Sajben,2006,Hungary,59,56.56,75,92.5,95,95,95,Single-ply,Sub-Juniors,M,B,
1,Rehina Fursenko,2006,Ukraine,63,60.45,75,-80,80,80,80,Single-ply,Sub-Juniors,F,B,
1,Mikolaj Sliwinski,2005,Poland,66,65.1,125,-130,130,130,130,Single-ply,Sub-Juniors,M,B,
1,Natalia Lasek,2004,Poland,69,66.15,62.5,85,-90,85,85,Single-ply,Sub-Juniors,F,B,
1,Krzysztof Perlik,2004,Poland,74,74,145,-150,-162.5,145,145,Single-ply,Sub-Juniors,M,B,
2,Jiří Dammer,2004,Czechia,74,73.3,130,-145,-145,130,130,Single-ply,Sub-Juniors,M,B,
3,Pawel Wloch,2006,Poland,74,73.4,100,-122.5,-132.5,100,100,Single-ply,Sub-Juniors,M,B,
1,Julia Dziwosz,2004,Poland,76,73.1,85,-105,-110,85,85,Single-ply,Sub-Juniors,F,B,
2,Justyna Pietrykowska,2005,Poland,76,73.5,-70,70,-110,70,70,Single-ply,Sub-Juniors,F,B,
1,Juraj Gabriel Blazicek,2006,Slovakia,83,80.75,150,-160,165,165,165,Single-ply,Sub-Juniors,M,B,
1,David Horník,2004,Czechia,93,87.85,110,130,135,135,135,Single-ply,Sub-Juniors,M,B,
1,Dawid Pietrykowski,2004,Poland,120,119.15,125,180,-200,180,180,Single-ply,Sub-Juniors,M,B,
1,Jakub Zavodny,2004,Slovakia,120+,138.45,200,210,-220,210,210,Single-ply,Sub-Juniors,M,B,
1,Natalia Selwiak,2005,Poland,84+,97.15,95,102.5,-110,102.5,102.5,Single-ply,Sub-Juniors,F,B,
1,Gigi Nicolson,1999,UK,47,46.02,52.5,55,57.5,57.5,57.5,Raw,Juniors,F,B,
2,Viktorie Slavíková,2002,Czechia,47,46.38,50,-55,-60,50,50,Raw,Juniors,F,B,
1,Zuzanna Kula,1999,Poland,52,51.68,80,85,-87.5,85,85,Raw,Juniors,F,B,
2,Denisa Turková,2003,Czechia,52,51.98,35,,,35,35,Raw,Juniors,F,B,
1,Caitlin Marie Baxter,2001,UK,57,55.66,92.5,97.5,100,100,100,Raw,Juniors,F,B,
2,Tiko Gviniashvili,1999,Georgia,57,55.46,65,72.5,77.5,77.5,77.5,Raw,Juniors,F,B,
1,Jaba Sepiashvili,2003,Georgia,59,57.66,117.5,122.5,130,130,130,Raw,Juniors,M,B,
2,Kemal Ergin,2002,Netherlands,59,58.86,117.5,122.5,-130,122.5,122.5,Raw,Juniors,M,B,
3,Dominik Wegener,2000,Germany,59,56.42,95,102.5,107.5,107.5,107.5,Raw,Juniors,M,B,
1,Alexandrea Rán Guðnýjardóttir,1999,Iceland,63,62.05,100,110,-115,110,110,Raw,Juniors,F,B,
2,Sandra Augustiniok,1999,Germany,63,62.35,90,95,-97.5,95,95,Raw,Juniors,F,B,
3,Marine Peltret,2002,France,63,60.4,80,85,-90,85,85,Raw,Juniors,F,B,
4,Martine Svinnset Pedersen,2002,Norway,63,62.25,80,85,-87.5,85,85,Raw,Juniors,F,B,
5,Matea Bumba,1999,Croatia,63,61.85,77.5,-82.5,-82.5,77.5,77.5,Raw,Juniors,F,B,
6,Chanice Sumners,1999,UK,63,62.45,70,-75,-75,70,70,Raw,Juniors,F,B,
1,Edward Kimber,2003,UK,66,64.95,140,145,147.5,147.5,147.5,Raw,Juniors,M,B,
2,Osman Uysal,1999,Netherlands,66,65.35,140,145,-147.5,145,145,Raw,Juniors,M,B,
3,Tomáš Vorel,2000,Czechia,66,65.75,130,-142.5,-147.5,130,130,Raw,Juniors,M,B,
1,Agnes Rudin,2000,Sweden,69,68.45,110,115,-120,115,115,Raw,Juniors,F,B,
2,Eszter Sallai,2001,Hungary,69,68.7,95,100,-102.5,100,100,Raw,Juniors,F,B,
3,Justyna Szarek,2001,Poland,69,68.75,-80,80,-85,80,80,Raw,Juniors,F,B,
4,Jessica Medwell,2001,Czechia,69,67.8,60,-65,65,65,65,Raw,Juniors,F,B,
1,Emil Lundgren,2003,Sweden,74,73.55,182.5,192.5,-200.5,192.5,192.5,Raw,Juniors,M,B,
2,Teo Kalogjera,2003,Croatia,74,73.4,180,190,-197.5,190,190,Raw,Juniors,M,B,
3,Anton Nykänen,2003,Finland,74,72.45,160,165,172.5,172.5,172.5,Raw,Juniors,M,B,
4,Mehdi Baali,1999,France,74,73.65,160,165,170,170,170,Raw,Juniors,M,B,
5,Elouan Vasnier,2001,France,74,72.8,160,-165,-165,160,160,Raw,Juniors,M,B,
6,Natan Balogh,2000,Hungary,74,73.9,-160,160,-172.5,160,160,Raw,Juniors,M,B,
1,Vilma Olsson,1999,Sweden,76,72.9,112.5,115,120,120,120,Raw,Juniors,F,B,
2,Jennifer Ljungberg,1999,Sweden,76,71.45,107.5,112.5,-115,112.5,112.5,Raw,Juniors,F,B,
3,Marthine Myhr,1999,Norway,76,75,102.5,107.5,-115,107.5,107.5,Raw,Juniors,F,B,
4,Sofie Sällinen,2000,Finland,76,75.15,82.5,87.5,-90,87.5,87.5,Raw,Juniors,F,B,
5,Lucie Daňková,2000,Czechia,76,72.65,82.5,-90,-90,82.5,82.5,Raw,Juniors,F,B,
1,Jonathan Henningsson,2001,Sweden,83,82.7,192.5,200,206.5,206.5,206.5,Raw,Juniors,M,B,
2,Simen Johnson Myrvold,2000,Norway,83,82.45,175,185,187.5,187.5,187.5,Raw,Juniors,M,B,
3,Lukas Kreuzer,1999,Austria,83,82.2,170,177.5,185,185,185,Raw,Juniors,M,B,
4,Walter Smajlović,2000,Croatia,83,82.1,165,-172.5,-177.5,165,165,Raw,Juniors,M,B,
5,Tomáš Votava,2002,Czechia,83,79.95,140,150,155,155,155,Raw,Juniors,M,B,
6,Sandor Tatar,1999,Hungary,83,78.35,140,150,-155,150,150,Raw,Juniors,M,B,
1,Matthildur Óskarsdóttir,1999,Iceland,84,83.15,115,122.5,127.5,127.5,127.5,Raw,Juniors,F,B,
1,Jack Taylor #7,2001,UK,93,91.9,-207.5,217.5,-220,217.5,217.5,Raw,Juniors,M,B,
2,Axel Samuelsson,2002,Sweden,93,89.55,190,195,200,200,200,Raw,Juniors,M,B,
3,Thomas Evans #1,1999,UK,93,92.7,187.5,192.5,-197.5,192.5,192.5,Raw,Juniors,M,B,
4,Isak Asperud,2002,Norway,93,92.5,180,190,-192.5,190,190,Raw,Juniors,M,B,
5,Mourik Jesse van,2002,Netherlands,93,91.25,170,175,-180,175,175,Raw,Juniors,M,B,
6,Márk Békési,2001,Hungary,93,90.1,165,-170,-170,165,165,Raw,Juniors,M,B,
7,Daniel Wasilewski,2002,Poland,93,87.75,155,-165,-165,155,155,Raw,Juniors,M,B,
1,Oskar Lindmark Sahlgren,2000,Sweden,105,104.1,185,192.5,195,195,195,Raw,Juniors,M,B,
2,Adrian Montag,1999,Germany,105,104.1,185,190,-197.5,190,190,Raw,Juniors,M,B,
3,Kristóf Bence Budai,1999,Hungary,105,104.7,172.5,185,190,190,190,Raw,Juniors,M,B,
4,Wouter Klaver,2000,Netherlands,105,103.2,175,182.5,187.5,187.5,187.5,Raw,Juniors,M,B,
5,Hermanni Järvenpää,2003,Finland,105,101.45,170,-180,180,180,180,Raw,Juniors,M,B,
6,Yuri Karoglanyan,1999,Armenia,105,104.9,170,180,-187.5,180,180,Raw,Juniors,M,B,
7,Pavlos Nektarios Pantelakis,1999,Greece,105,99.7,175,177.5,-182.5,177.5,177.5,Raw,Juniors,M,B,
1,Steven Örnerstedt,1999,Sweden,120,114.3,210,-215,217.5,217.5,217.5,Raw,Juniors,M,B,
2,Taras Melnichuk,2001,Ukraine,120,118.1,212.5,217.5,-220,217.5,217.5,Raw,Juniors,M,B,
3,Szilárd Bereczki-Király,1999,Hungary,120,113.35,200,212.5,-220,212.5,212.5,Raw,Juniors,M,B,
4,Filip Porteš,2000,Czechia,120,118.35,175,-182.5,-182.5,175,175,Raw,Juniors,M,B,
1,Denis Kurečka,1999,Czechia,120+,150.6,200,207.5,-212.5,207.5,207.5,Raw,Juniors,M,B,
2,Kordian Strzyga,2002,Poland,120+,180.6,192.5,-197.5,-197.5,192.5,192.5,Raw,Juniors,M,B,
3,Artem Usov,2000,Czechia,120+,138.4,180,187.5,-192.5,187.5,187.5,Raw,Juniors,M,B,
1,Karolina Kołata,1999,Poland,84+,101.95,90,-95,-95,90,90,Raw,Juniors,F,B,
2,Vira Popruha,2003,Ukraine,84+,132.8,80,-87.5,-87.5,80,80,Raw,Juniors,F,B,
1,Martina Fedorkova,1979,Slovakia,47,41.22,47.5,50,52.5,52.5,52.5,Raw,Masters 1,F,B,
1,Jadwiga Radwańska',1975,Poland,52,51.78,75,-80,-80,75,75,Raw,Masters 1,F,B,
2,Oksana Hordiienko,1977,Ukraine,52,51.9,62.5,67.5,-72.5,67.5,67.5,Raw,Masters 1,F,B,
3,Danijela Kršanin,1978,Serbia,52,51.4,55,-60,-60,55,55,Raw,Masters 1,F,B,
1,Erika Salamon,1973,Hungary,57,55.5,92.5,97.5,-103,97.5,97.5,Raw,Masters 1,F,B,
2,Helen Hughes #1,1976,UK,57,56.06,75,80,82.5,82.5,82.5,Raw,Masters 1,F,B,
3,Janika Kivelä,1979,Finland,57,55.42,67.5,70,-75,70,70,Raw,Masters 1,F,B,
4,Alona Malysheva,1976,Ukraine,57,56.1,65,70,-75,70,70,Raw,Masters 1,F,B,
5,Sabrina Bogner,1980,Germany,57,56,60,65,-67.5,65,65,Raw,Masters 1,F,B,
6,Inga Werner Isaksen,1980,Norway,57,55.06,60,-65,-65,60,60,Raw,Masters 1,F,B,
1,Christophe Lesourd #1,1973,France,59,58.5,105,-110,-110,105,105,Raw,Masters 1,M,B,
1,Natasja Martis,1975,Netherlands,63,61.75,85,90,95,95,95,Raw,Masters 1,F,B,
2,Niina Köninki,1981,Finland,63,61.5,85,87.5,92.5,92.5,92.5,Raw,Masters 1,F,B,
3,Dragana Kulaš,1978,Serbia,63,60.5,80,-85,-87.5,80,80,Raw,Masters 1,F,B,
4,Sara Ekstrom,1980,Sweden,63,60.55,67.5,72.5,75,75,75,Raw,Masters 1,F,B,
5,Mélisa Meunier,1975,France,63,59.9,65,67.5,70,70,70,Raw,Masters 1,F,B,
6,Zaneta Possehl,1977,Germany,63,62.6,60,65,-70,65,65,Raw,Masters 1,F,B,
1,Sławomir Śledź,1976,Poland,66,64.05,135,140,-145,140,140,Raw,Masters 1,M,B,
2,Maik Roese,1979,Germany,66,66,117.5,122.5,-127.5,122.5,122.5,Raw,Masters 1,M,B,
1,Mari Engberg,1982,Finland,69,68,100,102.5,105,105,105,Raw,Masters 1,F,B,
2,Nina Ruuhivirta,1977,Finland,69,68.3,90,92.5,95,95,95,Raw,Masters 1,F,B,
3,Krisztina Lója,1979,Hungary,69,66.7,80,-87.5,87.5,87.5,87.5,Raw,Masters 1,F,B,
4,Ina Scholz,1978,Germany,69,68,82.5,-85,-85,82.5,82.5,Raw,Masters 1,F,B,
1,Jani Haapamäki,1979,Finland,74,73.35,160,165,-172.5,165,165,Raw,Masters 1,M,B,
2,Adam Balawejder,1981,Poland,74,73.8,165,-172.5,-172.5,165,165,Raw,Masters 1,M,B,
3,László Tóth,1980,Hungary,74,73.55,150,157.5,162.5,162.5,162.5,Raw,Masters 1,M,B,
4,Peter Karacs,1977,Hungary,74,73.5,142.5,-147.5,-147.5,142.5,142.5,Raw,Masters 1,M,B,
5,Loïc Lahaye,1975,France,74,73.7,120,-125,-125,120,120,Raw,Masters 1,M,B,
1,Eilen Pollen,1981,Norway,76,74.35,100,105,107.5,107.5,107.5,Raw,Masters 1,F,B,
2,Tiina Voho,1973,Finland,76,73.25,-100,100,-105,100,100,Raw,Masters 1,F,B,
3,Lucie Šuková,1974,Czechia,76,70.75,90,92.5,95,95,95,Raw,Masters 1,F,B,
4,Jessica Sinikoski,1977,Finland,76,73.8,85,-90,-90,85,85,Raw,Masters 1,F,B,
5,Tetyana Shavidze,1977,Ukraine,76,74.1,70,75,-77.5,75,75,Raw,Masters 1,F,B,
1,Barrie Tavener,1974,UK,83,82.45,157.5,165,170,170,170,Raw,Masters 1,M,B,
2,Jakub Novák,1981,Czechia,83,82.45,155,162.5,-170,162.5,162.5,Raw,Masters 1,M,B,
3,Christian Roehner,1977,Germany,83,80.85,140,147.5,-150,147.5,147.5,Raw,Masters 1,M,B,
4,Lasse Arkela,1978,Finland,83,82.4,145,-150,-150,145,145,Raw,Masters 1,M,B,
5,Erik Marius Egerdahl,1978,Norway,83,82.9,132.5,137.5,142.5,142.5,142.5,Raw,Masters 1,M,B,
6,Nico Duenkel,1978,Germany,83,82.8,135,-140,140,140,140,Raw,Masters 1,M,B,
DQ,Johan Bjur,1974,Sweden,83,80.1,-160,-165,-165,,,Raw,Masters 1,M,B,
1,Daniälle Arts,1979,Netherlands,84,82.3,95,97.5,100,100,100,Raw,Masters 1,F,B,
2,Stefanie Nadine Jakob,1977,Germany,84,82,90,95,97.5,97.5,97.5,Raw,Masters 1,F,B,
3,Antje Decker,1982,Germany,84,80.4,85,-95,95,95,95,Raw,Masters 1,F,B,
4,Lucy Hyde,1979,UK,84,82.95,82.5,87.5,-90,87.5,87.5,Raw,Masters 1,F,B,
5,Hannele Eerikäinen,1977,Finland,84,77.9,80,85,-87.5,85,85,Raw,Masters 1,F,B,
6,Zsuzsa Kárai,1982,Hungary,84,77.85,75,80,-90,80,80,Raw,Masters 1,F,B,
1,Eriks Kanbergs,1980,Latvia,93,89.6,190,195,-200,195,195,Raw,Masters 1,M,B,
2,Vladislav Havrlík,1980,Czechia,93,92.45,185,192.5,-200,192.5,192.5,Raw,Masters 1,M,B,
3,Kęstutis Milkintis,1979,Lithuania,93,89.7,180,185,-192.5,185,185,Raw,Masters 1,M,B,
4,Tibor Zakor,1979,Hungary,93,91.7,170,177.5,-182.5,177.5,177.5,Raw,Masters 1,M,B,
5,Lorand Berke,1979,Hungary,93,92.75,160,167.5,-180,167.5,167.5,Raw,Masters 1,M,B,
6,Ross Carlyle,1978,UK,93,92.35,145,150,-155,150,150,Raw,Masters 1,M,B,
1,Mattias Hallor,1976,Germany,105,101.75,200,205,212.5,212.5,212.5,Raw,Masters 1,M,B,
2,Christian Klotz,1977,Austria,105,102.7,192.5,197.5,-207.5,197.5,197.5,Raw,Masters 1,M,B,
3,Jussi Kuusikko,1975,Finland,105,101.55,190,195,-200,195,195,Raw,Masters 1,M,B,
4,Sławomir Jasica,1977,Poland,105,94.4,180,185,-190,185,185,Raw,Masters 1,M,B,
5,Forizs Zoltan,1980,Hungary,105,104.7,175,182.5,-185,182.5,182.5,Raw,Masters 1,M,B,
6,Peter Sevcik,1979,Slovakia,105,102.6,180,-185,-185,180,180,Raw,Masters 1,M,B,
7,Robin Kensenhuis,1980,Netherlands,105,103.75,177.5,-182.5,-182.5,177.5,177.5,Raw,Masters 1,M,B,
8,Péter Belme,1975,Hungary,105,102.5,175,-180,-182.5,175,175,Raw,Masters 1,M,B,
1,Kornél Schauer,1977,Hungary,120,118.65,215,217.5,-222.5,217.5,217.5,Raw,Masters 1,M,B,
2,Linas Palivonas,1981,Lithuania,120,118.45,195,207.5,-220,207.5,207.5,Raw,Masters 1,M,B,
3,Peter Zuberec,1978,Slovakia,120,113.2,180,185,-190,185,185,Raw,Masters 1,M,B,
4,Károly Fogas,1981,Hungary,120,108.7,160,170,-172.5,170,170,Raw,Masters 1,M,B,
1,Janne Jääskeläinen,1982,Finland,120+,136.05,212.5,220,225,225,225,Raw,Masters 1,M,B,
2,Pavol Demčák,1977,Czechia,120+,122.5,210,217.5,222.5,222.5,222.5,Raw,Masters 1,M,B,
3,Sven Mueller,1975,Germany,120+,128.1,195,200,210,210,210,Raw,Masters 1,M,B,
4,Milan Smiljanić,1978,Serbia,120+,148.1,210,-215,-215,210,210,Raw,Masters 1,M,B,
5,David Hernandez,1981,France,120+,145.4,205,-210,-212.5,205,205,Raw,Masters 1,M,B,
6,Iustinian Popa,1978,Romania,120+,154.5,200,-212.5,-212.5,200,200,Raw,Masters 1,M,B,
7,Jorgen Blomqvist,1979,Sweden,120+,124.7,-177.5,177.5,-185,177.5,177.5,Raw,Masters 1,M,B,
1,Melinda Lombosi,1978,Hungary,84+,114.1,105,112.5,117.5,117.5,117.5,Raw,Masters 1,F,B,
2,Jeanette-Rene Viklund,1979,Norway,84+,91,87.5,-92.5,92.5,92.5,92.5,Raw,Masters 1,F,B,
3,Anni Veck,1982,Finland,84+,99.5,92.5,-97.5,-97.5,92.5,92.5,Raw,Masters 1,F,B,
4,Jeanette Denz,1974,Germany,84+,99.05,80,85,-90,85,85,Raw,Masters 1,F,B,
1,Virginie Philippe,1969,France,52,51.68,70,72.5,-75,72.5,72.5,Raw,Masters 2,F,B,
2,Géraldine Verlaine,1970,France,52,51.3,62.5,67.5,-70,67.5,67.5,Raw,Masters 2,F,B,
3,Magdolna Petróczki,1968,Hungary,52,50.42,60,65,-67.5,65,65,Raw,Masters 2,F,B,
1,Anita Saether,1969,Norway,57,54.82,65,67.5,72.5,72.5,72.5,Raw,Masters 2,F,B,
2,Balintne Katona,1970,Hungary,57,56,67.5,70,72.5,72.5,72.5,Raw,Masters 2,F,B,
3,Marie-France Cabos,1967,France,57,56.22,67.5,72.5,-75,72.5,72.5,Raw,Masters 2,F,B,
4,Petra Mlejnková,1967,Czechia,57,53.58,67.5,-72.5,-75,67.5,67.5,Raw,Masters 2,F,B,
1,Gilles Marigo,1968,France,59,58.18,110,116,-117.5,116,116,Raw,Masters 2,M,B,
1,Tatjana Špakova,1970,Latvia,63,58.34,75,80,-82.5,80,80,Raw,Masters 2,F,B,
2,Sanna Oksanen,1971,Finland,63,61.9,75,80,-82.5,80,80,Raw,Masters 2,F,B,
3,Viktoria Cederholm,1969,Sweden,63,58.44,72.5,-77.5,77.5,77.5,77.5,Raw,Masters 2,F,B,
4,Maureen Gordon,1964,UK,63,61.8,65,72.5,75,75,75,Raw,Masters 2,F,B,
5,Rita Shergold,1965,UK,63,61.25,57.5,60,62.5,62.5,62.5,Raw,Masters 2,F,B,
6,Torill Fonn,1967,Sweden,63,58.46,52.5,57.5,-62.5,57.5,57.5,Raw,Masters 2,F,B,
7,Doris Augustiniok,1971,Germany,63,59.8,52.5,57.5,-60,57.5,57.5,Raw,Masters 2,F,B,
1,Oleksandr Chernyshov,1966,Ukraine,66,65.95,130,137.5,140,140,140,Raw,Masters 2,M,B,
2,Christopher Dolk,1972,Sweden,66,65.5,120,127.5,-130,127.5,127.5,Raw,Masters 2,M,B,
3,Maik Staegemann,1969,Germany,66,65.05,120,-125,-127.5,120,120,Raw,Masters 2,M,B,
4,Kari-Pekka Körkkö,1969,Finland,66,65.4,102.5,-107.5,-107.5,102.5,102.5,Raw,Masters 2,M,B,
1,Lincoln Rose,1970,UK,69,68.15,75,77.5,80,80,80,Raw,Masters 2,F,B,
2,Florence Leccese,1969,France,69,65.6,70,72.5,-75,72.5,72.5,Raw,Masters 2,F,B,
3,Katarzyna Kowalik,1971,Poland,69,66.05,67.5,72.5,-75,72.5,72.5,Raw,Masters 2,F,B,
4,Liudmila Samoilova,1969,Latvia,69,67.75,72.5,-75,-75,72.5,72.5,Raw,Masters 2,F,B,
5,Tiina Uotila,1972,Finland,69,64.5,62.5,65,67.5,67.5,67.5,Raw,Masters 2,F,B,
6,Gro-Berit Stavheim,1964,Norway,69,68.55,65,-70,-75,65,65,Raw,Masters 2,F,B,
7,Rachel Spragg,1970,UK,69,63.75,57.5,62.5,-65,62.5,62.5,Raw,Masters 2,F,B,
8,Pusztai Beata,1967,Hungary,69,67.3,57.5,62.5,-65,62.5,62.5,Raw,Masters 2,F,B,
9,Andrea Thurner,1966,Austria,69,65.85,55,60,-62.5,60,60,Raw,Masters 2,F,B,
10,Kerstin Falkenberg,1966,Germany,69,66.4,-55,55,-60,55,55,Raw,Masters 2,F,B,
1,Mickaël Lager,1971,France,74,72.8,145,155,160,160,160,Raw,Masters 2,M,B,
2,Lars Carlsson,1966,Sweden,74,73.45,127.5,132.5,137.5,137.5,137.5,Raw,Masters 2,M,B,
3,Sami Siltala,1972,Finland,74,73.75,127.5,-132.5,-140,127.5,127.5,Raw,Masters 2,M,B,
4,Ben Epe,1967,Netherlands,74,73.05,125,-127.5,-127.5,125,125,Raw,Masters 2,M,B,
5,David Caille,1968,France,74,72.25,112.5,-120,-127.5,112.5,112.5,Raw,Masters 2,M,B,
1,Annette Pedersen,1968,Denmark,76,72.2,87.5,92.5,95,95,95,Raw,Masters 2,F,B,
2,Mia Öhrnell,1972,Sweden,76,75,85,90,-95,90,90,Raw,Masters 2,F,B,
1,Henning Lorentzen Ove,1971,Norway,83,81.75,150,155,160,160,160,Raw,Masters 2,M,B,
2,Michael Wegerer,1970,Austria,83,82.3,150,155,-162.5,155,155,Raw,Masters 2,M,B,
3,Bjørn-Andre Egerdahl,1970,Norway,83,80.05,147.5,152.5,-155,152.5,152.5,Raw,Masters 2,M,B,
4,James Wands,1971,UK,83,82.3,120,125,-130,125,125,Raw,Masters 2,M,B,
DQ,Vitalijus Stachovas,1971,Lithuania,83,82.25,-140,-145,-145,,,Raw,Masters 2,M,B,
1,Tutta Mattsson,1971,Finland,84,83,90,-92.5,-92.5,90,90,Raw,Masters 2,F,B,
2,Szilvia Bak,1971,Hungary,84,83.1,90,-92.5,-92.5,90,90,Raw,Masters 2,F,B,
3,Annica Aberg,1966,Sweden,84,82.6,75,-80,-80,75,75,Raw,Masters 2,F,B,
4,Karina Müller-Freyer,1970,Germany,84,84,67.5,72.5,-77.5,72.5,72.5,Raw,Masters 2,F,B,
1,Hervé France,1966,France,93,92.1,175,180,182.5,182.5,182.5,Raw,Masters 2,M,B,
2,Jan Kuehl,1971,Germany,93,91.5,170,175,180,180,180,Raw,Masters 2,M,B,
3,Robin van der Mee,1967,Netherlands,93,91.05,160,165,-175,165,165,Raw,Masters 2,M,B,
4,Attila Barsony,1966,Hungary,93,89.9,150,155,-157.5,155,155,Raw,Masters 2,M,B,
5,Lars Wiklund,1964,Sweden,93,87.6,140,147.5,-155,147.5,147.5,Raw,Masters 2,M,B,
1,Darius Ereksonas,1968,Lithuania,105,104.2,175,180,-182.5,180,180,Raw,Masters 2,M,B,
2,Thomas Kraemer,1970,Germany,105,103.4,165,-170,-180,165,165,Raw,Masters 2,M,B,
3,Franz Huemer,1963,Austria,105,103.05,155,160,-165,160,160,Raw,Masters 2,M,B,
4,Miklós Majnik,1969,Hungary,105,101.55,135,140,142.5,142.5,142.5,Raw,Masters 2,M,B,
5,Kaj Wasenius,1972,Finland,105,103.9,120,125,130,130,130,Raw,Masters 2,M,B,
DQ,Miroslav Botlík,1965,Czechia,105,102.4,-155,-155,,,,Raw,Masters 2,M,B,
1,János Cserna,1968,Hungary,120,116.65,-190,-190,192.5,192.5,192.5,Raw,Masters 2,M,B,
2,Serhii Filonenko,1965,Ukraine,120,117.15,175,182.5,-195,182.5,182.5,Raw,Masters 2,M,B,
3,Nicklas Karlsson,1969,Sweden,120,114.55,172.5,-180,-182.5,172.5,172.5,Raw,Masters 2,M,B,
1,Jaroslav Šoukal,1972,Czechia,120+,171.7,157.5,165,167.5,167.5,167.5,Raw,Masters 2,M,B,
2,Darren Ball,1970,UK,120+,120.25,157.5,162.5,165,165,165,Raw,Masters 2,M,B,
1,Elaine Jackson #2,1969,UK,84+,116.4,65,67.5,70,70,70,Raw,Masters 2,F,B,
2,Erzsébet Schneider,1965,Hungary,84+,84.3,60,65,67.5,67.5,67.5,Raw,Masters 2,F,B,
1,Brigitte Landon,1961,France,52,49,50,55,57.5,57.5,57.5,Raw,Masters 3,F,B,
1,Evelyne Herbin,1956,France,63,62.25,62.5,67.5,-70,67.5,67.5,Raw,Masters 3,F,B,
2,Margetta Salminen,1961,Finland,63,62.15,60,62.5,-67.5,62.5,62.5,Raw,Masters 3,F,B,
1,Roland Ölander,1953,Sweden,66,64.7,95,97.5,-112.5,97.5,97.5,Raw,Masters 3,M,B,
2,Marian Piwowarczyk,1961,Poland,66,64,90,95,-97.5,95,95,Raw,Masters 3,M,B,
3,Hannu Peräsalo,1962,Finland,66,65.85,90,95,-97.5,95,95,Raw,Masters 3,M,B,
1,Patricia Maciejewski,1961,France,69,67.25,75,80,-81.5,80,80,Raw,Masters 3,F,B,
2,Jannika Ingersdotter,1962,Sweden,69,66.3,62.5,65,-67.5,65,65,Raw,Masters 3,F,B,
1,Erkki Rajala,1962,Finland,74,72.95,155,157.5,158,158,158,Raw,Masters 3,M,B,
2,Roland Asmus,1960,Germany,74,71.55,100,-105,,100,100,Raw,Masters 3,M,B,
3,Patrick Malenfant,1958,France,74,72.8,85,90,-92.5,90,90,Raw,Masters 3,M,B,
1,Regina Haas,1962,Germany,76,71.35,85,90,93,93,93,Raw,Masters 3,F,B,
2,Ursula Häuser,1960,Germany,76,72.85,67.5,72.5,75,75,75,Raw,Masters 3,F,B,
1,Tomas Ring,1960,Sweden,83,82.5,132.5,137.5,142.5,142.5,142.5,Raw,Masters 3,M,B,
2,Joachim Graupner,1958,Germany,83,79.1,125,135,140,140,140,Raw,Masters 3,M,B,
3,Friedhelm Schröter,1961,Germany,83,80.9,130,-135,135,135,135,Raw,Masters 3,M,B,
4,Ronald Sura,1959,Slovakia,83,80,-125,125,-130,125,125,Raw,Masters 3,M,B,
5,János Pluhár,1960,Hungary,83,81.15,95,-100,-100,95,95,Raw,Masters 3,M,B,
1,Franz Nerb,1959,Germany,93,92.35,160,162.5,172.5,172.5,172.5,Raw,Masters 3,M,B,
2,Peer Hänsicke,1961,Germany,93,91.7,-152.5,-152.5,152.5,152.5,152.5,Raw,Masters 3,M,B,
3,Gilles Mandrick,1959,France,93,90.45,140,-145,-145,140,140,Raw,Masters 3,M,B,
4,Josef Ptáček,1953,Czechia,93,91.25,92.5,,,92.5,92.5,Raw,Masters 3,M,B,
1,Andy Rigby,1962,UK,105,104.5,185,192.5,201,201,201,Raw,Masters 3,M,B,
2,Stanislas Couchy,1953,France,105,97.4,140,150,155,155,155,Raw,Masters 3,M,B,
3,Ladislav Horny,1959,Slovakia,105,103.65,135,140,145,145,145,Raw,Masters 3,M,B,
4,Andrii Bozhyk,1962,Ukraine,105,96.75,110,115,120,120,120,Raw,Masters 3,M,B,
1,Werner Wieninger,1957,Germany,120,115.25,-162.5,165,172.5,172.5,172.5,Raw,Masters 3,M,B,
2,Jiří Psota,1962,Czechia,120,109.35,152.5,162.5,165,165,165,Raw,Masters 3,M,B,
3,Josef Schnaderbek,1959,Austria,120,118.95,145,155,-165,155,155,Raw,Masters 3,M,B,
1,Bernd Meyer,1961,Germany,120+,126.55,160,162.5,172.5,172.5,172.5,Raw,Masters 3,M,B,
2,Yngve Gustafsson,1959,Sweden,120+,134.2,-160,165,-175,165,165,Raw,Masters 3,M,B,
3,Helmut Rangnit,1956,Germany,120+,131.05,120,127.5,132.5,132.5,132.5,Raw,Masters 3,M,B,
1,Eva Speth,1954,Germany,84+,94.35,75,80,82.5,82.5,82.5,Raw,Masters 3,F,B,
2,Anne Hellem,1961,Norway,84+,95.25,60,62.5,65,65,65,Raw,Masters 3,F,B,
1,Françoise Heligon,1943,France,52,49.16,37.5,40,-42.5,40,40,Raw,Masters 4,F,B,
2,Judith McGauley,1948,UK,52,49.98,30,32.5,35,35,35,Raw,Masters 4,F,B,
1,Britten Fernström,1949,Sweden,57,56.14,52.5,55,-59,55,55,Raw,Masters 4,F,B,
2,Andrée Duboux,1946,France,57,55.6,47.5,50,52.5,52.5,52.5,Raw,Masters 4,F,B,
1,Milovan Marčetić,1949,Serbia,59,57.26,60,65,,65,65,Raw,Masters 4,M,B,
1,Viktorija Rumjanceva,1942,Latvia,63,60,55,-57.5,-57.5,55,55,Raw,Masters 4,F,B,
1,Leonīds Anastasjevs,1941,Latvia,66,62.9,80,85,-87.5,85,85,Raw,Masters 4,M,B,
1,Anita Thimm,1950,Germany,69,64.2,60,62.5,65,65,65,Raw,Masters 4,F,B,
1,John Terragni,1947,Denmark,74,72.3,105,112.5,117.5,117.5,117.5,Raw,Masters 4,M,B,
2,Horst Lorenz,1940,Germany,74,71.45,100,105,-110,105,105,Raw,Masters 4,M,B,
3,Antanas Micius,1951,Lithuania,74,72.7,105,-110,-110,105,105,Raw,Masters 4,M,B,
1,Gerhard Baumeister,1952,Germany,83,82.5,115,122.5,127.5,127.5,127.5,Raw,Masters 4,M,B,
2,Antonín Soušek,1946,Czechia,83,81,107.5,115,-117.5,115,115,Raw,Masters 4,M,B,
1,Jiří Horník,1948,Czechia,93,89.7,110,115,120,120,120,Raw,Masters 4,M,B,
2,Mick Ellender,1945,UK,93,90.4,-90,90,95,95,95,Raw,Masters 4,M,B,
1,Werner Richter,1947,Germany,105,102.6,160,170,172.5,172.5,172.5,Raw,Masters 4,M,B,
2,Seppo Komppa,1945,Finland,105,99.05,120,125,-130,125,125,Raw,Masters 4,M,B,
3,Petru Borbely-Coroban,1952,Romania,105,96.85,100,105,-110,105,105,Raw,Masters 4,M,B,
4,Sven-Erik Wallin,1951,Sweden,105,103.35,100,-102.5,-107.5,100,100,Raw,Masters 4,M,B,
5,František Hromas,1947,Czechia,105,97.9,-70,70,75,75,75,Raw,Masters 4,M,B,
1,Josef Duna,1950,Czechia,120,111,-120,120,-152.5,120,120,Raw,Masters 4,M,B,
2,Franz Mracek,1947,Austria,120,109.85,100,-115,-120,100,100,Raw,Masters 4,M,B,
1,Dainis Reinholds,1951,Latvia,120+,124.8,175,-185,-185,175,175,Raw,Masters 4,M,B,
1,Nataliya Cheremenko,2001,Ukraine,47,46.92,85,90,95,95,95,Raw,Open,F,B,
2,Sindy Bubek,1998,Croatia,47,45.92,80,-82.5,-82.5,80,80,Raw,Open,F,B,
3,Mtvarisa Khardziani,1992,Georgia,47,46.44,-50,50,57.5,57.5,57.5,Raw,Open,F,B,
1,Sophia Waldemarson,1988,Sweden,52,50.12,95,100,102.5,102.5,102.5,Raw,Open,F,B,
2,Mónika Nyers,1978,Hungary,52,50.9,-90,97.5,102.5,102.5,102.5,Raw,Open,F,B,
3,Selma Karoline Matilde Ramberg,2001,Norway,52,51.62,-97.5,-97.5,102.5,102.5,102.5,Raw,Open,F,B,
4,Alison Huet,1996,France,52,51.92,95,-100,100,100,100,Raw,Open,F,B,
5,Lorraine Balbiani,1995,France,52,51.02,87.5,90,92.5,92.5,92.5,Raw,Open,F,B,
6,Maria Kojoukhova,1989,Finland,52,51.74,72.5,-77.5,77.5,77.5,77.5,Raw,Open,F,B,
7,Jesse Lentjes,1996,Netherlands,52,51.46,72.5,-75,-75,72.5,72.5,Raw,Open,F,B,
8,Timea Janics,1988,Hungary,52,51.78,67.5,72.5,-75,72.5,72.5,Raw,Open,F,B,
1,Anna Rykun,1998,Ukraine,57,56.9,115,120,123.5,123.5,123.5,Raw,Open,F,B,
2,Hanna Buturlym,1997,Ukraine,57,56.79,105,-110,-110,105,105,Raw,Open,F,B,
3,Mia Margrethe Ramberg Storstad,1999,Norway,57,56.38,90,95,100,100,100,Raw,Open,F,B,
4,Sopiko Kvantchiani,1998,Georgia,57,56.34,90,95,97.5,97.5,97.5,Raw,Open,F,B,
5,Johanna Forsström,1988,Finland,57,56.16,92.5,95,-100,95,95,Raw,Open,F,B,
6,Minna Lepistö,1993,Finland,57,56.66,90,95,-97.5,95,95,Raw,Open,F,B,
7,Joanna Czekurłan,1993,Poland,57,53.96,90,-95,-95,90,90,Raw,Open,F,B,
8,Sheina Kaye,1997,UK,57,55.12,-80,82.5,85,85,85,Raw,Open,F,B,
1,Fredrik Eskil Myrvang,1990,Norway,59,56.48,152.5,157.5,-162.5,157.5,157.5,Raw,Open,M,B,
2,Vasyl Kropyvnytskyi,1993,Ukraine,59,58.5,137.5,142.5,-150,142.5,142.5,Raw,Open,M,B,
3,Ben Hampson,1989,UK,59,58.76,112.5,115,117.5,117.5,117.5,Raw,Open,M,B,
1,Anja Adelmann,1998,Austria,63,62.15,102.5,107.5,112.5,112.5,112.5,Raw,Open,F,B,
2,Zsanett Palágyi,1986,Hungary,63,62.95,107.5,-112.5,112.5,112.5,112.5,Raw,Open,F,B,
3,Elise Rosenborg,1993,Norway,63,62.1,105,-110,110,110,110,Raw,Open,F,B,
4,Pantea Supanetz,1990,Austria,63,62.75,105,110,-115,110,110,Raw,Open,F,B,
5,Hanna Kadatska,1977,Ukraine,63,62.8,95,100,-107.5,100,100,Raw,Open,F,B,
6,Charlotte MacPherson,1995,UK,63,62.85,92.5,-97.5,-97.5,92.5,92.5,Raw,Open,F,B,
1,Tsotne Bezhashvili,1985,Georgia,66,65.8,-165,165,-185,165,165,Raw,Open,M,B,
2,Jason Nativel,1995,France,66,65.35,150,155,-165,155,155,Raw,Open,M,B,
3,Philipp Ziemer,1990,Germany,66,65.85,-145,145,-157.5,145,145,Raw,Open,M,B,
1,Kovacs Aletta Rozsnyai,1999,Hungary,69,67.35,112.5,117.5,120,120,120,Raw,Open,F,B,
2,Andrea Petrek,1997,Croatia,69,66.95,115,-117.5,117.5,117.5,117.5,Raw,Open,F,B,
3,Louice Persson,1992,Sweden,69,67.25,112.5,117.5,-120,117.5,117.5,Raw,Open,F,B,
4,Kristina Horvat,1992,Croatia,69,66.55,110,-112.5,-112.5,110,110,Raw,Open,F,B,
5,Katie Roberts,1989,UK,69,67.75,105,107.5,-110,107.5,107.5,Raw,Open,F,B,
6,Moa Wikner,1995,UK,69,67.95,105,-110,-110,105,105,Raw,Open,F,B,
7,Ivana Horná,1990,Slovakia,69,68.6,100,105,-107.5,105,105,Raw,Open,F,B,
8,Anne-Olympe Moulet,1990,France,69,68.95,90,97.5,-102.5,97.5,97.5,Raw,Open,F,B,
1,Ivan Chuprinko,1986,Ukraine,74,73.9,215,-220.5,-220.5,215,215,Raw,Open,M,B,
2,Eddie Berglund,1995,Sweden,74,71.7,205,-215,-215,205,205,Raw,Open,M,B,
3,Joshua Wright #1,1986,Germany,74,73.75,172.5,180,187.5,187.5,187.5,Raw,Open,M,B,
4,Konrad Grochalski,1996,Poland,74,73.65,185,-192.5,-192.5,185,185,Raw,Open,M,B,
5,Kjell Egil Bakkelund,1988,Norway,74,73.7,160,170,-180,170,170,Raw,Open,M,B,
6,Volodymyr Dobrydnyuk,1986,Ukraine,74,73.95,165,-170,-170,165,165,Raw,Open,M,B,
7,Andrew Ward #1,1988,UK,74,73.65,155,-165,-170,155,155,Raw,Open,M,B,
1,Annika Zelander,1988,Sweden,76,75.6,-135,135,-145.5,135,135,Raw,Open,F,B,
2,Micaela Ödling,1990,Sweden,76,73.75,117.5,122.5,-125,122.5,122.5,Raw,Open,F,B,
3,Sophia Ellis,1996,UK,76,74.45,110,115,120,120,120,Raw,Open,F,B,
4,Rebekka Roemer Andersen,1996,Denmark,76,75.35,107.5,-115,-117.5,107.5,107.5,Raw,Open,F,B,
5,Helena Veelmaa,1995,Estonia,76,74.2,95,-100,-100,95,95,Raw,Open,F,B,
6,Rachel Steedman,1995,UK,76,69.4,70,75,77.5,77.5,77.5,Raw,Open,F,B,
1,Mehdi Sahari,1996,France,83,81,207.5,212.5,220,220,220,Raw,Open,M,B,
2,Volodymyr Tyutyushkin,2001,Ukraine,83,81.6,207.5,-212.5,-212.5,207.5,207.5,Raw,Open,M,B,
3,Juergen Kraushofer,1993,Austria,83,81.7,195,202.5,-210,202.5,202.5,Raw,Open,M,B,
4,Kim Beck-Gundersen,1985,Norway,83,82.2,187.5,195,-200,195,195,Raw,Open,M,B,
5,Jeffrey Hasselt,1987,Netherlands,83,81.25,180,-185,-185,180,180,Raw,Open,M,B,
6,Jan Šindelář,1997,Czechia,83,82.65,167.5,177.5,-182.5,177.5,177.5,Raw,Open,M,B,
7,Mads Pedersen,1989,Denmark,83,81.5,165,175,-180,175,175,Raw,Open,M,B,
8,Benjamin Haugk,1990,Germany,83,82.45,165,170,175,175,175,Raw,Open,M,B,
9,Ádám Szívós,1992,Hungary,83,82.2,167.5,172.5,-177.5,172.5,172.5,Raw,Open,M,B,
10,Marco Lee,1998,Netherlands,83,81.5,170,-180,-180,170,170,Raw,Open,M,B,
11,Aleksandar Kolocka,1993,Serbia,83,80.25,155,160,-162.5,160,160,Raw,Open,M,B,
12,Jan Bolech,1996,Czechia,83,82.35,135,-140,-145,135,135,Raw,Open,M,B,
DQ,Volodymyr Tsaturian,1995,Ukraine,83,82.5,-202.5,-202.5,-210,,,Raw,Open,M,B,
DQ,Teemu Hällfors,1995,Finland,83,82.45,-182.5,-182.5,-182.5,,,Raw,Open,M,B,
DQ,Jemali Nandoshvili,1998,Georgia,83,82.1,-195,-200,,,,Raw,Open,M,B,
1,Emmeth Salo,1998,Finland,84,83.4,120,-127.5,-130,120,120,Raw,Open,F,B,
2,Julie Franch Guerra,1990,France,84,83.9,105,-112.5,115,115,115,Raw,Open,F,B,
3,Katja Jørgensen,1988,Denmark,84,81.75,102.5,107.5,-112.5,107.5,107.5,Raw,Open,F,B,
4,Lea Schreiner,1995,Germany,84,77.75,92.5,97.5,-105,97.5,97.5,Raw,Open,F,B,
1,Bohdan Bon,1995,Ukraine,93,92.05,210,220,228,228,228,Raw,Open,M,B,
2,Owen Hubbard,1992,UK,93,89.45,200,212.5,-220,212.5,212.5,Raw,Open,M,B,
3,Onarheim Jarle Bjorgo,1992,Norway,93,92.55,195,205,207.5,207.5,207.5,Raw,Open,M,B,
4,András Brezina,1995,Hungary,93,92.25,-200,200,205,205,205,Raw,Open,M,B,
5,Davit Gabelaia,1989,Georgia,93,92.4,200,205,-207.5,205,205,Raw,Open,M,B,
6,Christopher Teague,1991,UK,93,92.55,185,192.5,197.5,197.5,197.5,Raw,Open,M,B,
7,Michael Jurgen Herrmann,1988,Denmark,93,91.25,192.5,-197.5,-197.5,192.5,192.5,Raw,Open,M,B,
1,Josef Eriksson,1992,Sweden,105,103.25,225,230,-240.5,230,230,Raw,Open,M,B,
2,Geza Kubatov,1983,Hungary,105,102.95,215,222.5,-225,222.5,222.5,Raw,Open,M,B,
3,Joni Tajakka,1992,Finland,105,104.55,220,-225,-227.5,220,220,Raw,Open,M,B,
4,Paulius Morkvėnas,1992,Lithuania,105,103.9,210,217.5,-220,217.5,217.5,Raw,Open,M,B,
5,Anders Henriksson,1975,Sweden,105,104.35,210,217.5,-220,217.5,217.5,Raw,Open,M,B,
6,Levani Mtiulishvili,1990,Georgia,105,101.95,-215,215,-220,215,215,Raw,Open,M,B,
7,Paweł Przybyłowicz,1990,Poland,105,99,207.5,-215,-220,207.5,207.5,Raw,Open,M,B,
8,Ralf A. Male,1994,Norway,105,104.4,190,-197.5,197.5,197.5,197.5,Raw,Open,M,B,
9,Aleksandar Arbutina,1994,Serbia,105,104.45,195,-200,-200,195,195,Raw,Open,M,B,
10,Nikola Fic,1992,Croatia,105,103.1,-190,190,-200,190,190,Raw,Open,M,B,
11,Wesley McGuiness,1989,UK,105,101.2,172.5,177.5,185,185,185,Raw,Open,M,B,
12,Dominik Boras,1995,Germany,105,96.1,180,-190,-190,180,180,Raw,Open,M,B,
13,Jovan Todorović,1996,Serbia,105,104.5,-180,180,-185,180,180,Raw,Open,M,B,
1,Kostiantyn Yezyk,1991,Ukraine,120,119.15,230,237.5,-245.5,237.5,237.5,Raw,Open,M,B,
2,Simo Sistonen,1983,Finland,120,119,232.5,-242.5,-246,232.5,232.5,Raw,Open,M,B,
3,Tommy Påhls,1982,Sweden,120,119.1,230,-235,-237.5,230,230,Raw,Open,M,B,
4,Jakob Thrane Mainz,1993,Denmark,120,119.1,-225,225,-235,225,225,Raw,Open,M,B,
5,Dimitri Bonnay,1982,France,120,118.1,212.5,217.5,-230,217.5,217.5,Raw,Open,M,B,
6,Lukas Skrib,1994,Slovakia,120,109.8,-205,205,-217.5,205,205,Raw,Open,M,B,
7,Adam Hugyecz,1991,Hungary,120,108.2,195,202.5,-205,202.5,202.5,Raw,Open,M,B,
8,Markus Patschke,1988,Germany,120,117.75,200,-205,-205,200,200,Raw,Open,M,B,
1,Romuald Massé,1992,France,120+,151.4,245,255,-265,255,255,Raw,Open,M,B,
2,Marek Novák,1997,Czechia,120+,165,245,255,-260,255,255,Raw,Open,M,B,
3,Dmytro Vovk,1996,Ukraine,120+,139.7,230,-242.5,242.5,242.5,242.5,Raw,Open,M,B,
4,Andrei Caliani-Vainer,1989,Romania,120+,159.7,230,-240,240,240,240,Raw,Open,M,B,
5,Silviu Popsa,1985,Romania,120+,136.6,210,222.5,232.5,232.5,232.5,Raw,Open,M,B,
6,Samuel Hajnik,1994,Slovakia,120+,153.1,232.5,-237.5,-240,232.5,232.5,Raw,Open,M,B,
DQ,Gunnar De Vadder,1983,Belgium,120+,162.5,-235,-235,,,,Raw,Open,M,B,
DQ,Antti Tommila,1989,Finland,120+,153.8,-220,-232.5,-242.5,,,Raw,Open,M,B,
1,Ágnes Szabó,1988,Hungary,84+,114.9,142.5,147.5,152.5,152.5,152.5,Raw,Open,F,B,
2,Johanna Laitinen,1986,Finland,84+,112.55,130,137.5,-140,137.5,137.5,Raw,Open,F,B,
3,Matilda Hjälle,1991,Sweden,84+,103.95,-135,135,-137.5,135,135,Raw,Open,F,B,
4,Rebecca Coggle,1983,UK,84+,137.55,115,122.5,127.5,127.5,127.5,Raw,Open,F,B,
5,Mónika Lovas,1994,Hungary,84+,131.4,-117.5,117.5,122.5,122.5,122.5,Raw,Open,F,B,
6,Maria Kamp Jensen,1985,Denmark,84+,104.5,115,120,-127.5,120,120,Raw,Open,F,B,
DQ,Maria Kr Ludviksdottir,1983,Iceland,84+,172.9,-140,-140,-140,,,Raw,Open,F,B,
1,Khrystyna Ulianyk,2005,Ukraine,43,39.78,35,-40,40,40,40,Raw,Sub-Juniors,F,B,
1,Yevheniia Hevko,2006,Ukraine,52,51.08,67.5,72.5,-75,72.5,72.5,Raw,Sub-Juniors,F,B,
2,Sandra Dzieżok,2007,Poland,52,51.66,42.5,45,47.5,47.5,47.5,Raw,Sub-Juniors,F,B,
3,Lujza Keller-Bortnyik,2007,Hungary,52,51.02,40,42.5,-45,42.5,42.5,Raw,Sub-Juniors,F,B,
1,Radosław Rogala,2007,Poland,53,52.56,60,-65,-65,60,60,Raw,Sub-Juniors,M,B,
1,Sofiya Stanko,2006,Ukraine,57,53.62,80,85,-90,85,85,Raw,Sub-Juniors,F,B,
2,Wiktoria Dankowska,2004,Poland,57,56.32,62.5,67.5,-70,67.5,67.5,Raw,Sub-Juniors,F,B,
3,Martyna Janaszek,2005,Poland,57,55.12,55,62.5,-65,62.5,62.5,Raw,Sub-Juniors,F,B,
1,Dániel Sajben,2006,Hungary,59,56.98,75,80,-85,80,80,Raw,Sub-Juniors,M,B,
1,Juuli Kostian,2006,Finland,63,62.35,90,98.5,100,100,100,Raw,Sub-Juniors,F,B,
2,Milla Haapamäki,2006,Finland,63,61.55,65,67.5,72.5,72.5,72.5,Raw,Sub-Juniors,F,B,
3,Johanna Paul,2004,Hungary,63,61.5,55,60,62.5,62.5,62.5,Raw,Sub-Juniors,F,B,
1,Mikolaj Sliwinski,2005,Poland,66,61.15,107.5,110,-115,110,110,Raw,Sub-Juniors,M,B,
1,Hilma Westerberg,2004,Sweden,69,66.2,100.5,105,110,110,110,Raw,Sub-Juniors,F,B,
2,Natalia Lasek,2004,Poland,69,66.5,62.5,65,67.5,67.5,67.5,Raw,Sub-Juniors,F,B,
3,Svatava Hanykyrova,2004,Czechia,69,67.35,65,67.5,-70,67.5,67.5,Raw,Sub-Juniors,F,B,
1,Jiří Dammer,2004,Czechia,74,72.8,130,135,-140,135,135,Raw,Sub-Juniors,M,B,
2,Krzysztof Perlik,2004,Poland,74,73.7,122.5,-127.5,-127.5,122.5,122.5,Raw,Sub-Juniors,M,B,
3,Zoltan Nagy Jr,2004,Hungary,74,72.5,117.5,-122.5,-122.5,117.5,117.5,Raw,Sub-Juniors,M,B,
4,Richárd Gazdafi,2005,Hungary,74,71.75,100,107.5,-117.5,107.5,107.5,Raw,Sub-Juniors,M,B,
1,Justyna Pietrykowska,2005,Poland,76,74.05,72.5,77.5,80,80,80,Raw,Sub-Juniors,F,B,
2,Kristina Rozman,2004,Slovenia,76,72.45,67.5,72.5,-75,72.5,72.5,Raw,Sub-Juniors,F,B,
3,Julia Dziwosz,2004,Poland,76,73.8,65,-70,-75,65,65,Raw,Sub-Juniors,F,B,
1,Max Wadsworth,2004,UK,83,82.5,147.5,152.5,157.5,157.5,157.5,Raw,Sub-Juniors,M,B,
2,Arttu Korhonen,2004,Finland,83,81.8,142.5,150,155,155,155,Raw,Sub-Juniors,M,B,
3,Victor Garnier,2004,France,83,80.95,137.5,-145,-150,137.5,137.5,Raw,Sub-Juniors,M,B,
1,Elena Mijatović,2004,Serbia,84,77.3,72.5,80,82.5,82.5,82.5,Raw,Sub-Juniors,F,B,
2,Marelin Jüriado,2006,Estonia,84,80.9,75,82.5,-85,82.5,82.5,Raw,Sub-Juniors,F,B,
1,Adrian Turiak,2004,Slovakia,93,90.75,137.5,-147.5,147.5,147.5,147.5,Raw,Sub-Juniors,M,B,
2,Rene Gornik,2004,Slovenia,93,90.85,130,135,142.5,142.5,142.5,Raw,Sub-Juniors,M,B,
3,Martin Lozinak,2005,Slovakia,93,91.7,142.5,-147.5,-147.5,142.5,142.5,Raw,Sub-Juniors,M,B,
4,David Horník,2004,Czechia,93,87.35,127.5,132.5,-137.5,132.5,132.5,Raw,Sub-Juniors,M,B,
1,Olivér Susa,2004,Hungary,105,104.5,-175,175,196,196,196,Raw,Sub-Juniors,M,B,
2,Barnaby Spear,2004,UK,105,103.5,165,170,-180,170,170,Raw,Sub-Juniors,M,B,
3,Maciej Slowik,2004,Poland,105,101.75,140,145,152.5,152.5,152.5,Raw,Sub-Juniors,M,B,
1,David Balog,2004,Slovakia,120,107.9,180,190,195,195,195,Raw,Sub-Juniors,M,B,
2,Marcus Thornton,2004,UK,120,106,150,157.5,160,160,160,Raw,Sub-Juniors,M,B,
1,Markus Lehtla,2004,Estonia,120+,150,157.5,167.5,177.5,177.5,177.5,Raw,Sub-Juniors,M,B,
2,Adam Rutter,2005,UK,120+,138.35,157.5,-170,-175,157.5,157.5,Raw,Sub-Juniors,M,B,
1,Reda Laurinavičiūtė,2007,Lithuania,84+,84.15,67.5,70,-75,70,70,Raw,Sub-Juniors,F,B,
2,Pille Pihlik,2005,Estonia,84+,92.55,50,55,57.5,57.5,57.5,Raw,Sub-Juniors,F,B,
3,Noemi Mucsi,2008,Hungary,84+,115.4,45,52.5,-57.5,52.5,52.5,Raw,Sub-Juniors,F,B,
